A    B    P    Q    X    Y    Z
0.06    0.06    0    0    1.584893192e-10     3.01995172e-07     4.786300923e-08
0    0    0    0    0    0    0
0    0    0    0    0    0    0
0    0    0    0    0    0    0
0    0    0    0    0    0    0
0    0    0    0    0    0    0
0    0    0    0    0    0    0
0    0    0    0    0    0    0
0    0    0    0    0    0    0
0    0    0    0    0    0    0
